<svg width="178" height="100" viewBox="0 0 178 100" fill="none" xmlns="http://www.w3.org/2000/svg">
<g clip-path="url(#clip0)">
<path d="M92.1503 7V18.2844H105.471" fill="white"/>
<path d="M92.1503 7V18.2844H105.471" stroke="#C31631" stroke-width="2.30692" stroke-miterlimit="10" stroke-linecap="round" stroke-linejoin="round"/>
<path d="M68.3309 31.2087H97.8425" stroke="#C31631" stroke-width="2.30692" stroke-miterlimit="10" stroke-linecap="round" stroke-linejoin="round"/>
<path d="M68.3309 40.1995H97.8425" stroke="#C31631" stroke-width="2.30692" stroke-miterlimit="10" stroke-linecap="round" stroke-linejoin="round"/>
<path d="M68.3309 49.179H97.8425" stroke="#C31631" stroke-width="2.30692" stroke-miterlimit="10" stroke-linecap="round" stroke-linejoin="round"/>
<path d="M68.3309 58.7662H97.8425" stroke="#C31631" stroke-width="2.30692" stroke-miterlimit="10" stroke-linecap="round" stroke-linejoin="round"/>
<path d="M68.3309 67.7455H97.8425" stroke="#C31631" stroke-width="2.30692" stroke-miterlimit="10" stroke-linecap="round" stroke-linejoin="round"/>
<path d="M68.3309 76.7362H97.8425" stroke="#C31631" stroke-width="2.30692" stroke-miterlimit="10" stroke-linecap="round" stroke-linejoin="round"/>
<path d="M62.4999 31.2087H62.5803" stroke="#C31631" stroke-width="2.30692" stroke-miterlimit="10" stroke-linecap="round" stroke-linejoin="round"/>
<path d="M62.4999 40.1995H62.5803" stroke="#C31631" stroke-width="2.30692" stroke-miterlimit="10" stroke-linecap="round" stroke-linejoin="round"/>
<path d="M62.4999 49.179H62.5803" stroke="#C31631" stroke-width="2.30692" stroke-miterlimit="10" stroke-linecap="round" stroke-linejoin="round"/>
<path d="M62.4999 58.7662H62.5803" stroke="#C31631" stroke-width="2.30692" stroke-miterlimit="10" stroke-linecap="round" stroke-linejoin="round"/>
<path d="M62.4999 67.7455H62.5803" stroke="#C31631" stroke-width="2.30692" stroke-miterlimit="10" stroke-linecap="round" stroke-linejoin="round"/>
<path d="M62.4999 76.7362H62.5803" stroke="#C31631" stroke-width="2.30692" stroke-miterlimit="10" stroke-linecap="round" stroke-linejoin="round"/>
<path d="M106.151 86.5757H53.2928V7H92.1499L98.8104 12.6422L105.471 18.2844L106.151 86.5757Z" stroke="#C31631" stroke-width="2.30692" stroke-miterlimit="10" stroke-linecap="round" stroke-linejoin="round"/>
<path d="M137.425 71.0826C137.425 83.3303 127.446 93.2615 115.139 93.2615C102.832 93.2615 92.8525 83.3303 92.8525 71.0826C92.8525 58.8349 102.832 48.9037 115.139 48.9037C127.446 48.9037 137.425 58.8349 137.425 71.0826Z" fill="white"/>
<path d="M115.127 93.2617C127.435 93.2617 137.413 83.3319 137.413 71.0828C137.413 58.8338 127.435 48.9039 115.127 48.9039C102.819 48.9039 92.8407 58.8338 92.8407 71.0828C92.8407 83.3319 102.819 93.2617 115.127 93.2617Z" stroke="#C31631" stroke-width="3.46038" stroke-miterlimit="10" stroke-linecap="round" stroke-linejoin="round"/>
<path d="M108.271 71.1858C110.426 73.3189 114.286 79.2134 114.436 79.1904C114.62 79.1675 116.89 70.1193 121.292 65.3257" fill="white"/>
<path d="M108.271 71.1858C110.426 73.3189 114.286 79.2134 114.436 79.1904C114.62 79.1675 116.89 70.1193 121.292 65.3257" stroke="#C31631" stroke-width="3.46038" stroke-miterlimit="10" stroke-linecap="round" stroke-linejoin="round"/>
</g>
<defs>
<clipPath id="clip0">
<rect width="177" height="100" fill="white" transform="translate(0.5)"/>
</clipPath>
</defs>
</svg>
